{
  "todos": [
    {
      "id": 0,
      "title": "Learn React",
      "completed": false
    },
    {
      "title": "asdf",
      "completed": false,
      "id": 1
    },
    {
      "title": "asdf",
      "completed": false,
      "id": 2
    }
  ]
}